<?xml version="1.0" encoding="UTF-8"?>
<symbol version="7" name="EC_DOUBLE">
    <symboltype>BLOCK</symboltype>
    <timestamp>2014-11-18T1:45:54</timestamp>
    <pin polarity="Input" x="64" y="63" name="P_Y(8:0)" />
    <pin polarity="Input" x="64" y="127" name="P_X(8:0)" />
    <pin polarity="Input" x="64" y="191" name="IN_LOG(8:0)" />
    <pin polarity="Input" x="64" y="255" name="IN_VALUE(8:0)" />
    <pin polarity="Input" x="64" y="319" name="CLK" />
    <pin polarity="Input" x="64" y="383" name="A(8:0)" />
    <pin polarity="Output" x="320" y="63" name="FINISHED" />
    <pin polarity="Output" x="320" y="127" name="OUT_VALUE(8:0)" />
    <pin polarity="Output" x="320" y="191" name="OUT_LOG(8:0)" />
    <pin polarity="Output" x="320" y="255" name="R_X(8:0)" />
    <pin polarity="Output" x="320" y="319" name="R_Y(8:0)" />
    <graph>
        <attrtext style="alignment:BCENTER;fontsize:56;fontname:Arial" attrname="SymbolName" x="192" y="-8" type="symbol" />
        <attrtext style="fontsize:24;fontname:Arial" attrname="PinName" x="72" y="63" type="pin P_Y(8:0)" />
        <attrtext style="fontsize:24;fontname:Arial" attrname="PinName" x="72" y="127" type="pin P_X(8:0)" />
        <attrtext style="fontsize:24;fontname:Arial" attrname="PinName" x="72" y="191" type="pin IN_LOG(8:0)" />
        <attrtext style="fontsize:24;fontname:Arial" attrname="PinName" x="72" y="255" type="pin IN_VALUE(8:0)" />
        <attrtext style="fontsize:24;fontname:Arial" attrname="PinName" x="72" y="319" type="pin CLK" />
        <attrtext style="fontsize:24;fontname:Arial" attrname="PinName" x="72" y="383" type="pin A(8:0)" />
        <attrtext style="alignment:RIGHT;fontsize:24;fontname:Arial" attrname="PinName" x="312" y="63" type="pin FINISHED" />
        <attrtext style="alignment:RIGHT;fontsize:24;fontname:Arial" attrname="PinName" x="312" y="127" type="pin OUT_VALUE(8:0)" />
        <attrtext style="alignment:RIGHT;fontsize:24;fontname:Arial" attrname="PinName" x="312" y="191" type="pin OUT_LOG(8:0)" />
        <attrtext style="alignment:RIGHT;fontsize:24;fontname:Arial" attrname="PinName" x="312" y="255" type="pin R_X(8:0)" />
        <attrtext style="alignment:RIGHT;fontsize:24;fontname:Arial" attrname="PinName" x="312" y="319" type="pin R_Y(8:0)" />
        <rect width="0" x="64" y="51" height="24" />
        <line x2="64" y1="63" y2="63" x1="64" />
        <rect width="0" x="64" y="115" height="24" />
        <line x2="64" y1="127" y2="127" x1="64" />
        <rect width="0" x="64" y="179" height="24" />
        <line x2="64" y1="191" y2="191" x1="64" />
        <rect width="0" x="64" y="243" height="24" />
        <line x2="64" y1="255" y2="255" x1="64" />
        <line x2="64" y1="319" y2="319" x1="64" />
        <rect width="0" x="64" y="371" height="24" />
        <line x2="64" y1="383" y2="383" x1="64" />
        <line x2="320" y1="63" y2="63" x1="320" />
        <rect width="0" x="320" y="115" height="24" />
        <line x2="320" y1="127" y2="127" x1="320" />
        <rect width="0" x="320" y="179" height="24" />
        <line x2="320" y1="191" y2="191" x1="320" />
        <rect width="0" x="320" y="243" height="24" />
        <line x2="320" y1="255" y2="255" x1="320" />
        <rect width="0" x="320" y="307" height="24" />
        <line x2="320" y1="319" y2="319" x1="320" />
        <rect width="256" x="64" y="0" height="384" />
    </graph>
</symbol>
