<?xml version="1.0" encoding="UTF-8"?>
<drawing version="7">
    <attr value="spartan3e" name="DeviceFamilyName">
        <trait delete="all:0" />
        <trait editname="all:0" />
        <trait edittrait="all:0" />
    </attr>
    <netlist>
        <signal name="XLXN_145(8:0)" />
        <signal name="XLXN_147(8:0)" />
        <signal name="XLXN_148(8:0)" />
        <signal name="XLXN_149(8:0)" />
        <signal name="XLXN_152(8:0)" />
        <signal name="XLXN_153(8:0)" />
        <signal name="XLXN_155(8:0)" />
        <signal name="XLXN_156(8:0)" />
        <signal name="XLXN_157(8:0)" />
        <signal name="XLXN_160(8:0)" />
        <signal name="XLXN_161(8:0)" />
        <signal name="XLXN_162(8:0)" />
        <signal name="XLXN_165(8:0)" />
        <signal name="XLXN_166(8:0)" />
        <signal name="P_X(8:0)" />
        <signal name="XLXN_170(8:0)" />
        <signal name="XLXN_172(8:0)" />
        <signal name="XLXN_173(8:0)" />
        <signal name="XLXN_174(8:0)" />
        <signal name="XLXN_175(8:0)" />
        <signal name="R_X(8:0)" />
        <signal name="XLXN_177(8:0)" />
        <signal name="R_Y(8:0)" />
        <signal name="XLXN_179(8:0)" />
        <signal name="B(8:0)" />
        <signal name="P_Y(8:0)" />
        <signal name="MUX_LOG(2:0)" />
        <signal name="OUT_VALUE(8:0)" />
        <signal name="MUX_REGX(1:0)" />
        <signal name="LOAD_REGX" />
        <signal name="MUX_REGT(1:0)" />
        <signal name="LOAD_REGT" />
        <signal name="MUX_VAL(2:0)" />
        <signal name="OUT_LOG(8:0)" />
        <signal name="MUX_REGY(1:0)" />
        <signal name="LOAD_REGY" />
        <signal name="CLK" />
        <signal name="DEMUX_LOG(2:0)" />
        <signal name="IN_LOG(8:0)" />
        <signal name="DEMUX_VAL(2:0)" />
        <signal name="IN_VALUE(8:0)" />
        <port polarity="Input" name="P_X(8:0)" />
        <port polarity="Output" name="R_X(8:0)" />
        <port polarity="Output" name="R_Y(8:0)" />
        <port polarity="Input" name="B(8:0)" />
        <port polarity="Input" name="P_Y(8:0)" />
        <port polarity="Input" name="MUX_LOG(2:0)" />
        <port polarity="Output" name="OUT_VALUE(8:0)" />
        <port polarity="Input" name="MUX_REGX(1:0)" />
        <port polarity="Input" name="LOAD_REGX" />
        <port polarity="Input" name="MUX_REGT(1:0)" />
        <port polarity="Input" name="LOAD_REGT" />
        <port polarity="Input" name="MUX_VAL(2:0)" />
        <port polarity="Output" name="OUT_LOG(8:0)" />
        <port polarity="Input" name="MUX_REGY(1:0)" />
        <port polarity="Input" name="LOAD_REGY" />
        <port polarity="Input" name="CLK" />
        <port polarity="Input" name="DEMUX_LOG(2:0)" />
        <port polarity="Input" name="IN_LOG(8:0)" />
        <port polarity="Input" name="DEMUX_VAL(2:0)" />
        <port polarity="Input" name="IN_VALUE(8:0)" />
        <blockdef name="MULTIPLEXER_5">
            <timestamp>2014-11-29T0:5:18</timestamp>
            <rect width="336" x="64" y="-384" height="384" />
            <rect width="64" x="0" y="-364" height="24" />
            <line x2="0" y1="-352" y2="-352" x1="64" />
            <rect width="64" x="0" y="-300" height="24" />
            <line x2="0" y1="-288" y2="-288" x1="64" />
            <rect width="64" x="0" y="-236" height="24" />
            <line x2="0" y1="-224" y2="-224" x1="64" />
            <rect width="64" x="0" y="-172" height="24" />
            <line x2="0" y1="-160" y2="-160" x1="64" />
            <rect width="64" x="0" y="-108" height="24" />
            <line x2="0" y1="-96" y2="-96" x1="64" />
            <rect width="64" x="0" y="-44" height="24" />
            <line x2="0" y1="-32" y2="-32" x1="64" />
            <rect width="64" x="400" y="-364" height="24" />
            <line x2="464" y1="-352" y2="-352" x1="400" />
        </blockdef>
        <blockdef name="DEMULTIPLEXER_5">
            <timestamp>2014-11-29T0:5:13</timestamp>
            <rect width="256" x="64" y="-320" height="320" />
            <rect width="64" x="0" y="-300" height="24" />
            <line x2="0" y1="-288" y2="-288" x1="64" />
            <rect width="64" x="0" y="-44" height="24" />
            <line x2="0" y1="-32" y2="-32" x1="64" />
            <rect width="64" x="320" y="-300" height="24" />
            <line x2="384" y1="-288" y2="-288" x1="320" />
            <rect width="64" x="320" y="-236" height="24" />
            <line x2="384" y1="-224" y2="-224" x1="320" />
            <rect width="64" x="320" y="-172" height="24" />
            <line x2="384" y1="-160" y2="-160" x1="320" />
            <rect width="64" x="320" y="-108" height="24" />
            <line x2="384" y1="-96" y2="-96" x1="320" />
            <rect width="64" x="320" y="-44" height="24" />
            <line x2="384" y1="-32" y2="-32" x1="320" />
        </blockdef>
        <blockdef name="REGISTER_8bit">
            <timestamp>2014-11-16T14:12:5</timestamp>
            <rect width="256" x="64" y="-256" height="256" />
            <line x2="0" y1="-224" y2="-224" x1="64" />
            <line x2="0" y1="-160" y2="-160" x1="64" />
            <line x2="0" y1="-96" y2="-96" x1="64" />
            <rect width="64" x="0" y="-44" height="24" />
            <line x2="0" y1="-32" y2="-32" x1="64" />
            <rect width="64" x="320" y="-236" height="24" />
            <line x2="384" y1="-224" y2="-224" x1="320" />
        </blockdef>
        <blockdef name="MULTIPLEXER">
            <timestamp>2014-11-16T14:39:20</timestamp>
            <rect width="336" x="64" y="-192" height="192" />
            <rect width="64" x="0" y="-172" height="24" />
            <line x2="0" y1="-160" y2="-160" x1="64" />
            <rect width="64" x="0" y="-108" height="24" />
            <line x2="0" y1="-96" y2="-96" x1="64" />
            <rect width="64" x="0" y="-44" height="24" />
            <line x2="0" y1="-32" y2="-32" x1="64" />
            <rect width="64" x="400" y="-172" height="24" />
            <line x2="464" y1="-160" y2="-160" x1="400" />
        </blockdef>
        <blockdef name="GF_Mul_Log">
            <timestamp>2014-11-16T14:37:39</timestamp>
            <rect width="256" x="64" y="-128" height="128" />
            <rect width="64" x="0" y="-108" height="24" />
            <line x2="0" y1="-96" y2="-96" x1="64" />
            <rect width="64" x="0" y="-44" height="24" />
            <line x2="0" y1="-32" y2="-32" x1="64" />
            <rect width="64" x="320" y="-108" height="24" />
            <line x2="384" y1="-96" y2="-96" x1="320" />
        </blockdef>
        <blockdef name="GF_Div_Log">
            <timestamp>2014-11-16T14:34:43</timestamp>
            <rect width="256" x="64" y="-128" height="128" />
            <rect width="64" x="0" y="-108" height="24" />
            <line x2="0" y1="-96" y2="-96" x1="64" />
            <rect width="64" x="0" y="-44" height="24" />
            <line x2="0" y1="-32" y2="-32" x1="64" />
            <rect width="64" x="320" y="-108" height="24" />
            <line x2="384" y1="-96" y2="-96" x1="320" />
        </blockdef>
        <blockdef name="MULTIPLEXER_4">
            <timestamp>2014-11-18T0:13:32</timestamp>
            <rect width="336" x="64" y="-320" height="320" />
            <rect width="64" x="0" y="-300" height="24" />
            <line x2="0" y1="-288" y2="-288" x1="64" />
            <rect width="64" x="0" y="-236" height="24" />
            <line x2="0" y1="-224" y2="-224" x1="64" />
            <rect width="64" x="0" y="-172" height="24" />
            <line x2="0" y1="-160" y2="-160" x1="64" />
            <rect width="64" x="0" y="-108" height="24" />
            <line x2="0" y1="-96" y2="-96" x1="64" />
            <rect width="64" x="0" y="-44" height="24" />
            <line x2="0" y1="-32" y2="-32" x1="64" />
            <rect width="64" x="400" y="-300" height="24" />
            <line x2="464" y1="-288" y2="-288" x1="400" />
        </blockdef>
        <blockdef name="DEMULTIPLEXER_4">
            <timestamp>2014-11-18T0:16:27</timestamp>
            <rect width="256" x="64" y="-256" height="256" />
            <rect width="64" x="0" y="-236" height="24" />
            <line x2="0" y1="-224" y2="-224" x1="64" />
            <rect width="64" x="0" y="-44" height="24" />
            <line x2="0" y1="-32" y2="-32" x1="64" />
            <rect width="64" x="320" y="-236" height="24" />
            <line x2="384" y1="-224" y2="-224" x1="320" />
            <rect width="64" x="320" y="-172" height="24" />
            <line x2="384" y1="-160" y2="-160" x1="320" />
            <rect width="64" x="320" y="-108" height="24" />
            <line x2="384" y1="-96" y2="-96" x1="320" />
            <rect width="64" x="320" y="-44" height="24" />
            <line x2="384" y1="-32" y2="-32" x1="320" />
        </blockdef>
        <blockdef name="GF_Add">
            <timestamp>2014-11-16T13:37:26</timestamp>
            <rect width="256" x="64" y="-128" height="128" />
            <rect width="64" x="0" y="-108" height="24" />
            <line x2="0" y1="-96" y2="-96" x1="64" />
            <rect width="64" x="0" y="-44" height="24" />
            <line x2="0" y1="-32" y2="-32" x1="64" />
            <rect width="64" x="320" y="-108" height="24" />
            <line x2="384" y1="-96" y2="-96" x1="320" />
        </blockdef>
        <blockdef name="MULTIPLEXER_3">
            <timestamp>2014-11-16T13:47:20</timestamp>
            <rect width="336" x="64" y="-256" height="256" />
            <rect width="64" x="0" y="-236" height="24" />
            <line x2="0" y1="-224" y2="-224" x1="64" />
            <rect width="64" x="0" y="-172" height="24" />
            <line x2="0" y1="-160" y2="-160" x1="64" />
            <rect width="64" x="0" y="-108" height="24" />
            <line x2="0" y1="-96" y2="-96" x1="64" />
            <rect width="64" x="0" y="-44" height="24" />
            <line x2="0" y1="-32" y2="-32" x1="64" />
            <rect width="64" x="400" y="-236" height="24" />
            <line x2="464" y1="-224" y2="-224" x1="400" />
        </blockdef>
        <block symbolname="MULTIPLEXER_5" name="XLXI_37">
            <blockpin signalname="P_X(8:0)" name="X_1(8:0)" />
            <blockpin signalname="B(8:0)" name="X_2(8:0)" />
            <blockpin signalname="P_Y(8:0)" name="X_3(8:0)" />
            <blockpin signalname="XLXN_173(8:0)" name="X_4(8:0)" />
            <blockpin signalname="R_X(8:0)" name="X_5(8:0)" />
            <blockpin signalname="MUX_LOG(2:0)" name="CONTROLL(2:0)" />
            <blockpin signalname="OUT_VALUE(8:0)" name="OUTPUT(8:0)" />
        </block>
        <block symbolname="DEMULTIPLEXER_5" name="XLXI_38">
            <blockpin signalname="DEMUX_LOG(2:0)" name="CONTROLL(2:0)" />
            <blockpin signalname="IN_LOG(8:0)" name="INPUT(8:0)" />
            <blockpin signalname="XLXN_145(8:0)" name="X_1(8:0)" />
            <blockpin signalname="XLXN_147(8:0)" name="X_2(8:0)" />
            <blockpin signalname="XLXN_160(8:0)" name="X_3(8:0)" />
            <blockpin signalname="XLXN_170(8:0)" name="X_4(8:0)" />
            <blockpin signalname="XLXN_174(8:0)" name="X_5(8:0)" />
        </block>
        <block symbolname="REGISTER_8bit" name="XLXI_39">
            <blockpin signalname="CLK" name="CLK" />
            <blockpin name="CLR" />
            <blockpin signalname="LOAD_REGX" name="LOAD" />
            <blockpin signalname="XLXN_149(8:0)" name="INPUT(8:0)" />
            <blockpin signalname="R_X(8:0)" name="OUTPUT(8:0)" />
        </block>
        <block symbolname="MULTIPLEXER" name="XLXI_40">
            <blockpin signalname="XLXN_148(8:0)" name="X_1(8:0)" />
            <blockpin signalname="XLXN_156(8:0)" name="X_2(8:0)" />
            <blockpin signalname="MUX_REGX(1:0)" name="CONTROLL(1:0)" />
            <blockpin signalname="XLXN_149(8:0)" name="OUTPUT(8:0)" />
        </block>
        <block symbolname="GF_Mul_Log" name="XLXI_41">
            <blockpin signalname="XLXN_145(8:0)" name="X(8:0)" />
            <blockpin signalname="XLXN_145(8:0)" name="Y(8:0)" />
            <blockpin signalname="XLXN_148(8:0)" name="PRODUCT(8:0)" />
        </block>
        <block symbolname="GF_Div_Log" name="XLXI_42">
            <blockpin signalname="XLXN_147(8:0)" name="X(8:0)" />
            <blockpin signalname="R_X(8:0)" name="Y(8:0)" />
            <blockpin signalname="XLXN_155(8:0)" name="PRODUCT(8:0)" />
        </block>
        <block symbolname="REGISTER_8bit" name="XLXI_43">
            <blockpin signalname="CLK" name="CLK" />
            <blockpin name="CLR" />
            <blockpin signalname="LOAD_REGY" name="LOAD" />
            <blockpin signalname="XLXN_153(8:0)" name="INPUT(8:0)" />
            <blockpin signalname="R_Y(8:0)" name="OUTPUT(8:0)" />
        </block>
        <block symbolname="MULTIPLEXER" name="XLXI_44">
            <blockpin signalname="XLXN_152(8:0)" name="X_1(8:0)" />
            <blockpin signalname="XLXN_179(8:0)" name="X_2(8:0)" />
            <blockpin signalname="MUX_REGY(1:0)" name="CONTROLL(1:0)" />
            <blockpin signalname="XLXN_153(8:0)" name="OUTPUT(8:0)" />
        </block>
        <block symbolname="MULTIPLEXER_4" name="XLXI_45">
            <blockpin signalname="XLXN_148(8:0)" name="X_1(8:0)" />
            <blockpin signalname="XLXN_155(8:0)" name="X_2(8:0)" />
            <blockpin signalname="XLXN_162(8:0)" name="X_3(8:0)" />
            <blockpin signalname="XLXN_172(8:0)" name="X_4(8:0)" />
            <blockpin signalname="MUX_VAL(2:0)" name="CONTROLL(2:0)" />
            <blockpin signalname="OUT_LOG(8:0)" name="OUTPUT(8:0)" />
        </block>
        <block symbolname="DEMULTIPLEXER_4" name="XLXI_46">
            <blockpin signalname="DEMUX_VAL(2:0)" name="CONTROLL(2:0)" />
            <blockpin signalname="IN_VALUE(8:0)" name="INPUT(8:0)" />
            <blockpin signalname="XLXN_152(8:0)" name="X_1(8:0)" />
            <blockpin signalname="XLXN_157(8:0)" name="X_2(8:0)" />
            <blockpin signalname="XLXN_166(8:0)" name="X_3(8:0)" />
            <blockpin signalname="XLXN_175(8:0)" name="X_4(8:0)" />
        </block>
        <block symbolname="GF_Add" name="XLXI_47">
            <blockpin signalname="XLXN_157(8:0)" name="X(8:0)" />
            <blockpin signalname="R_Y(8:0)" name="Y(8:0)" />
            <blockpin signalname="XLXN_156(8:0)" name="PRODUCT(8:0)" />
        </block>
        <block symbolname="REGISTER_8bit" name="XLXI_48">
            <blockpin signalname="CLK" name="CLK" />
            <blockpin name="CLR" />
            <blockpin signalname="LOAD_REGT" name="LOAD" />
            <blockpin signalname="XLXN_161(8:0)" name="INPUT(8:0)" />
            <blockpin signalname="XLXN_173(8:0)" name="OUTPUT(8:0)" />
        </block>
        <block symbolname="MULTIPLEXER_3" name="XLXI_49">
            <blockpin signalname="XLXN_160(8:0)" name="X_1(8:0)" />
            <blockpin signalname="XLXN_165(8:0)" name="X_2(8:0)" />
            <blockpin signalname="XLXN_170(8:0)" name="X_3(8:0)" />
            <blockpin signalname="MUX_REGT(1:0)" name="CONTROLL(1:0)" />
            <blockpin signalname="XLXN_161(8:0)" name="OUTPUT(8:0)" />
        </block>
        <block symbolname="GF_Div_Log" name="XLXI_50">
            <blockpin signalname="XLXN_173(8:0)" name="X(8:0)" />
            <blockpin signalname="XLXN_145(8:0)" name="Y(8:0)" />
            <blockpin signalname="XLXN_162(8:0)" name="PRODUCT(8:0)" />
        </block>
        <block symbolname="GF_Add" name="XLXI_51">
            <blockpin signalname="P_X(8:0)" name="X(8:0)" />
            <blockpin signalname="XLXN_166(8:0)" name="Y(8:0)" />
            <blockpin signalname="XLXN_165(8:0)" name="PRODUCT(8:0)" />
        </block>
        <block symbolname="GF_Mul_Log" name="XLXI_52">
            <blockpin signalname="XLXN_173(8:0)" name="X(8:0)" />
            <blockpin signalname="XLXN_174(8:0)" name="Y(8:0)" />
            <blockpin signalname="XLXN_172(8:0)" name="PRODUCT(8:0)" />
        </block>
        <block symbolname="GF_Add" name="XLXI_53">
            <blockpin signalname="XLXN_175(8:0)" name="X(8:0)" />
            <blockpin signalname="R_X(8:0)" name="Y(8:0)" />
            <blockpin signalname="XLXN_177(8:0)" name="PRODUCT(8:0)" />
        </block>
        <block symbolname="GF_Add" name="XLXI_54">
            <blockpin signalname="R_Y(8:0)" name="X(8:0)" />
            <blockpin signalname="XLXN_177(8:0)" name="Y(8:0)" />
            <blockpin signalname="XLXN_179(8:0)" name="PRODUCT(8:0)" />
        </block>
    </netlist>
    <sheet sheetnum="1" width="3520" height="2720">
        <instance x="416" y="624" name="XLXI_37" orien="R0">
        </instance>
        <instance x="1056" y="560" name="XLXI_38" orien="R0">
        </instance>
        <instance x="2960" y="496" name="XLXI_39" orien="R0">
        </instance>
        <instance x="2320" y="432" name="XLXI_40" orien="R0">
        </instance>
        <instance x="1760" y="368" name="XLXI_41" orien="R0">
        </instance>
        <instance x="1776" y="608" name="XLXI_42" orien="R0">
        </instance>
        <branch name="XLXN_145(8:0)">
            <wire x2="32" y1="32" y2="1904" x1="32" />
            <wire x2="160" y1="1904" y2="1904" x1="32" />
            <wire x2="1680" y1="32" y2="32" x1="32" />
            <wire x2="1680" y1="32" y2="272" x1="1680" />
            <wire x2="1760" y1="272" y2="272" x1="1680" />
            <wire x2="1680" y1="272" y2="336" x1="1680" />
            <wire x2="1760" y1="336" y2="336" x1="1680" />
            <wire x2="1680" y1="272" y2="272" x1="1440" />
        </branch>
        <branch name="XLXN_147(8:0)">
            <wire x2="1600" y1="336" y2="336" x1="1440" />
            <wire x2="1600" y1="336" y2="512" x1="1600" />
            <wire x2="1776" y1="512" y2="512" x1="1600" />
        </branch>
        <branch name="XLXN_148(8:0)">
            <wire x2="80" y1="160" y2="1712" x1="80" />
            <wire x2="656" y1="1712" y2="1712" x1="80" />
            <wire x2="2192" y1="160" y2="160" x1="80" />
            <wire x2="2192" y1="160" y2="272" x1="2192" />
            <wire x2="2320" y1="272" y2="272" x1="2192" />
            <wire x2="2192" y1="272" y2="272" x1="2144" />
        </branch>
        <branch name="XLXN_149(8:0)">
            <wire x2="2864" y1="272" y2="272" x1="2784" />
            <wire x2="2864" y1="272" y2="464" x1="2864" />
            <wire x2="2960" y1="464" y2="464" x1="2864" />
        </branch>
        <instance x="2976" y="1296" name="XLXI_43" orien="R0">
        </instance>
        <instance x="2320" y="1232" name="XLXI_44" orien="R0">
        </instance>
        <instance x="656" y="2000" name="XLXI_45" orien="R0">
        </instance>
        <instance x="1296" y="1936" name="XLXI_46" orien="R0">
        </instance>
        <branch name="XLXN_152(8:0)">
            <wire x2="2160" y1="1712" y2="1712" x1="1680" />
            <wire x2="2320" y1="1072" y2="1072" x1="2160" />
            <wire x2="2160" y1="1072" y2="1712" x1="2160" />
        </branch>
        <branch name="XLXN_153(8:0)">
            <wire x2="2832" y1="1072" y2="1072" x1="2784" />
            <wire x2="2832" y1="1072" y2="1264" x1="2832" />
            <wire x2="2976" y1="1264" y2="1264" x1="2832" />
        </branch>
        <branch name="XLXN_155(8:0)">
            <wire x2="2176" y1="784" y2="784" x1="176" />
            <wire x2="176" y1="784" y2="1648" x1="176" />
            <wire x2="592" y1="1648" y2="1648" x1="176" />
            <wire x2="592" y1="1648" y2="1776" x1="592" />
            <wire x2="656" y1="1776" y2="1776" x1="592" />
            <wire x2="2176" y1="512" y2="512" x1="2160" />
            <wire x2="2176" y1="512" y2="784" x1="2176" />
        </branch>
        <instance x="2368" y="656" name="XLXI_47" orien="R0">
        </instance>
        <branch name="XLXN_156(8:0)">
            <wire x2="2256" y1="160" y2="336" x1="2256" />
            <wire x2="2320" y1="336" y2="336" x1="2256" />
            <wire x2="2832" y1="160" y2="160" x1="2256" />
            <wire x2="2832" y1="160" y2="560" x1="2832" />
            <wire x2="2832" y1="560" y2="560" x1="2752" />
        </branch>
        <branch name="XLXN_157(8:0)">
            <wire x2="2224" y1="1776" y2="1776" x1="1680" />
            <wire x2="2368" y1="560" y2="560" x1="2224" />
            <wire x2="2224" y1="560" y2="1776" x1="2224" />
        </branch>
        <instance x="1296" y="1456" name="XLXI_48" orien="R0">
        </instance>
        <instance x="720" y="1456" name="XLXI_49" orien="R0">
        </instance>
        <branch name="XLXN_160(8:0)">
            <wire x2="1552" y1="736" y2="736" x1="224" />
            <wire x2="224" y1="736" y2="1168" x1="224" />
            <wire x2="624" y1="1168" y2="1168" x1="224" />
            <wire x2="624" y1="1168" y2="1232" x1="624" />
            <wire x2="720" y1="1232" y2="1232" x1="624" />
            <wire x2="1552" y1="400" y2="400" x1="1440" />
            <wire x2="1552" y1="400" y2="736" x1="1552" />
        </branch>
        <branch name="XLXN_161(8:0)">
            <wire x2="1200" y1="1232" y2="1232" x1="1184" />
            <wire x2="1200" y1="1232" y2="1424" x1="1200" />
            <wire x2="1296" y1="1424" y2="1424" x1="1200" />
        </branch>
        <branch name="XLXN_162(8:0)">
            <wire x2="656" y1="1840" y2="1840" x1="544" />
        </branch>
        <branch name="XLXN_165(8:0)">
            <wire x2="720" y1="1296" y2="1296" x1="640" />
        </branch>
        <branch name="XLXN_166(8:0)">
            <wire x2="256" y1="1360" y2="1360" x1="224" />
            <wire x2="224" y1="1360" y2="1584" x1="224" />
            <wire x2="1792" y1="1584" y2="1584" x1="224" />
            <wire x2="1792" y1="1584" y2="1840" x1="1792" />
            <wire x2="1792" y1="1840" y2="1840" x1="1680" />
        </branch>
        <branch name="P_X(8:0)">
            <wire x2="128" y1="208" y2="1296" x1="128" />
            <wire x2="256" y1="1296" y2="1296" x1="128" />
            <wire x2="400" y1="208" y2="208" x1="128" />
            <wire x2="400" y1="208" y2="272" x1="400" />
            <wire x2="416" y1="272" y2="272" x1="400" />
            <wire x2="400" y1="272" y2="272" x1="384" />
        </branch>
        <branch name="XLXN_170(8:0)">
            <wire x2="1504" y1="1088" y2="1088" x1="688" />
            <wire x2="688" y1="1088" y2="1360" x1="688" />
            <wire x2="720" y1="1360" y2="1360" x1="688" />
            <wire x2="1504" y1="464" y2="464" x1="1440" />
            <wire x2="1504" y1="464" y2="1088" x1="1504" />
        </branch>
        <instance x="144" y="2224" name="XLXI_52" orien="R0">
        </instance>
        <branch name="XLXN_172(8:0)">
            <wire x2="592" y1="2128" y2="2128" x1="528" />
            <wire x2="592" y1="1904" y2="2128" x1="592" />
            <wire x2="656" y1="1904" y2="1904" x1="592" />
        </branch>
        <branch name="XLXN_174(8:0)">
            <wire x2="64" y1="2192" y2="2288" x1="64" />
            <wire x2="1920" y1="2288" y2="2288" x1="64" />
            <wire x2="144" y1="2192" y2="2192" x1="64" />
            <wire x2="1456" y1="528" y2="528" x1="1440" />
            <wire x2="1456" y1="528" y2="848" x1="1456" />
            <wire x2="1920" y1="848" y2="848" x1="1456" />
            <wire x2="1920" y1="848" y2="2288" x1="1920" />
        </branch>
        <instance x="2352" y="1712" name="XLXI_54" orien="R0">
        </instance>
        <branch name="XLXN_177(8:0)">
            <wire x2="2352" y1="1680" y2="1680" x1="2320" />
            <wire x2="2320" y1="1680" y2="1760" x1="2320" />
            <wire x2="2528" y1="1760" y2="1760" x1="2320" />
            <wire x2="2528" y1="1760" y2="1904" x1="2528" />
            <wire x2="2528" y1="1904" y2="1904" x1="2464" />
        </branch>
        <branch name="R_Y(8:0)">
            <wire x2="2368" y1="624" y2="624" x1="2288" />
            <wire x2="2288" y1="624" y2="736" x1="2288" />
            <wire x2="3440" y1="736" y2="736" x1="2288" />
            <wire x2="3440" y1="736" y2="864" x1="3440" />
            <wire x2="3440" y1="864" y2="1072" x1="3440" />
            <wire x2="3440" y1="1072" y2="1488" x1="3440" />
            <wire x2="2320" y1="1488" y2="1616" x1="2320" />
            <wire x2="2352" y1="1616" y2="1616" x1="2320" />
            <wire x2="3440" y1="1488" y2="1488" x1="2320" />
            <wire x2="3440" y1="1072" y2="1072" x1="3360" />
            <wire x2="3440" y1="864" y2="864" x1="3392" />
        </branch>
        <branch name="XLXN_179(8:0)">
            <wire x2="2320" y1="1136" y2="1136" x1="2272" />
            <wire x2="2272" y1="1136" y2="1328" x1="2272" />
            <wire x2="2864" y1="1328" y2="1328" x1="2272" />
            <wire x2="2864" y1="1328" y2="1616" x1="2864" />
            <wire x2="2864" y1="1616" y2="1616" x1="2736" />
        </branch>
        <branch name="B(8:0)">
            <wire x2="416" y1="336" y2="336" x1="352" />
        </branch>
        <branch name="P_Y(8:0)">
            <wire x2="416" y1="400" y2="400" x1="384" />
        </branch>
        <iomarker fontsize="28" x="384" y="272" name="P_X(8:0)" orien="R180" />
        <iomarker fontsize="28" x="352" y="336" name="B(8:0)" orien="R180" />
        <iomarker fontsize="28" x="384" y="400" name="P_Y(8:0)" orien="R180" />
        <branch name="MUX_LOG(2:0)">
            <wire x2="416" y1="592" y2="592" x1="400" />
            <wire x2="400" y1="592" y2="656" x1="400" />
            <wire x2="416" y1="656" y2="656" x1="400" />
        </branch>
        <iomarker fontsize="28" x="416" y="656" name="MUX_LOG(2:0)" orien="R0" />
        <instance x="256" y="1392" name="XLXI_51" orien="R0">
        </instance>
        <instance x="160" y="1936" name="XLXI_50" orien="R0">
        </instance>
        <branch name="XLXN_173(8:0)">
            <wire x2="144" y1="2128" y2="2128" x1="16" />
            <wire x2="16" y1="2128" y2="2352" x1="16" />
            <wire x2="1856" y1="2352" y2="2352" x1="16" />
            <wire x2="128" y1="1536" y2="1840" x1="128" />
            <wire x2="160" y1="1840" y2="1840" x1="128" />
            <wire x2="1744" y1="1536" y2="1536" x1="128" />
            <wire x2="416" y1="464" y2="464" x1="288" />
            <wire x2="288" y1="464" y2="928" x1="288" />
            <wire x2="1744" y1="928" y2="928" x1="288" />
            <wire x2="1744" y1="928" y2="1232" x1="1744" />
            <wire x2="1744" y1="1232" y2="1536" x1="1744" />
            <wire x2="1856" y1="1232" y2="1232" x1="1744" />
            <wire x2="1856" y1="1232" y2="2352" x1="1856" />
            <wire x2="1744" y1="1232" y2="1232" x1="1680" />
        </branch>
        <branch name="XLXN_175(8:0)">
            <wire x2="2080" y1="1904" y2="1904" x1="1680" />
        </branch>
        <instance x="2080" y="2000" name="XLXI_53" orien="R0">
        </instance>
        <branch name="R_X(8:0)">
            <wire x2="176" y1="96" y2="528" x1="176" />
            <wire x2="416" y1="528" y2="528" x1="176" />
            <wire x2="3440" y1="96" y2="96" x1="176" />
            <wire x2="3440" y1="96" y2="272" x1="3440" />
            <wire x2="3488" y1="272" y2="272" x1="3440" />
            <wire x2="3488" y1="272" y2="2032" x1="3488" />
            <wire x2="3440" y1="272" y2="608" x1="3440" />
            <wire x2="3440" y1="608" y2="688" x1="3440" />
            <wire x2="1776" y1="576" y2="576" x1="1680" />
            <wire x2="1680" y1="576" y2="688" x1="1680" />
            <wire x2="3440" y1="688" y2="688" x1="1680" />
            <wire x2="2080" y1="1968" y2="1968" x1="2016" />
            <wire x2="2016" y1="1968" y2="2032" x1="2016" />
            <wire x2="3488" y1="2032" y2="2032" x1="2016" />
            <wire x2="3440" y1="272" y2="272" x1="3344" />
            <wire x2="3440" y1="608" y2="608" x1="3408" />
        </branch>
        <branch name="OUT_VALUE(8:0)">
            <wire x2="928" y1="272" y2="272" x1="880" />
            <wire x2="928" y1="272" y2="288" x1="928" />
        </branch>
        <iomarker fontsize="28" x="928" y="288" name="OUT_VALUE(8:0)" orien="R90" />
        <branch name="MUX_REGX(1:0)">
            <wire x2="2160" y1="400" y2="464" x1="2160" />
            <wire x2="2176" y1="464" y2="464" x1="2160" />
            <wire x2="2320" y1="400" y2="400" x1="2160" />
        </branch>
        <branch name="LOAD_REGX">
            <wire x2="2896" y1="384" y2="400" x1="2896" />
            <wire x2="2960" y1="400" y2="400" x1="2896" />
        </branch>
        <iomarker fontsize="28" x="2176" y="464" name="MUX_REGX(1:0)" orien="R0" />
        <iomarker fontsize="28" x="2896" y="384" name="LOAD_REGX" orien="R270" />
        <branch name="MUX_REGT(1:0)">
            <wire x2="688" y1="1424" y2="1488" x1="688" />
            <wire x2="704" y1="1488" y2="1488" x1="688" />
            <wire x2="720" y1="1424" y2="1424" x1="688" />
        </branch>
        <branch name="LOAD_REGT">
            <wire x2="1232" y1="1344" y2="1360" x1="1232" />
            <wire x2="1296" y1="1360" y2="1360" x1="1232" />
        </branch>
        <branch name="MUX_VAL(2:0)">
            <wire x2="624" y1="1968" y2="2048" x1="624" />
            <wire x2="640" y1="2048" y2="2048" x1="624" />
            <wire x2="656" y1="1968" y2="1968" x1="624" />
        </branch>
        <branch name="OUT_LOG(8:0)">
            <wire x2="1168" y1="1712" y2="1712" x1="1120" />
            <wire x2="1168" y1="1712" y2="1728" x1="1168" />
        </branch>
        <iomarker fontsize="28" x="704" y="1488" name="MUX_REGT(1:0)" orien="R0" />
        <iomarker fontsize="28" x="1232" y="1344" name="LOAD_REGT" orien="R270" />
        <iomarker fontsize="28" x="640" y="2048" name="MUX_VAL(2:0)" orien="R0" />
        <iomarker fontsize="28" x="1168" y="1728" name="OUT_LOG(8:0)" orien="R90" />
        <branch name="MUX_REGY(1:0)">
            <wire x2="2320" y1="1200" y2="1200" x1="2304" />
            <wire x2="2304" y1="1200" y2="1280" x1="2304" />
            <wire x2="2320" y1="1280" y2="1280" x1="2304" />
        </branch>
        <branch name="LOAD_REGY">
            <wire x2="2864" y1="1184" y2="1200" x1="2864" />
            <wire x2="2976" y1="1200" y2="1200" x1="2864" />
        </branch>
        <iomarker fontsize="28" x="2320" y="1280" name="MUX_REGY(1:0)" orien="R0" />
        <iomarker fontsize="28" x="2864" y="1184" name="LOAD_REGY" orien="R270" />
        <iomarker fontsize="28" x="2944" y="896" name="CLK" orien="R0" />
        <branch name="CLK">
            <wire x2="2928" y1="896" y2="896" x1="1264" />
            <wire x2="2928" y1="896" y2="1072" x1="2928" />
            <wire x2="2976" y1="1072" y2="1072" x1="2928" />
            <wire x2="2944" y1="896" y2="896" x1="2928" />
            <wire x2="1264" y1="896" y2="1232" x1="1264" />
            <wire x2="1296" y1="1232" y2="1232" x1="1264" />
            <wire x2="2960" y1="272" y2="272" x1="2928" />
            <wire x2="2928" y1="272" y2="896" x1="2928" />
        </branch>
        <iomarker fontsize="28" x="3392" y="864" name="R_Y(8:0)" orien="R180" />
        <iomarker fontsize="28" x="3408" y="608" name="R_X(8:0)" orien="R180" />
        <branch name="DEMUX_LOG(2:0)">
            <wire x2="992" y1="272" y2="288" x1="992" />
            <wire x2="1056" y1="272" y2="272" x1="992" />
        </branch>
        <branch name="IN_LOG(8:0)">
            <wire x2="1056" y1="528" y2="528" x1="1040" />
            <wire x2="1040" y1="528" y2="592" x1="1040" />
            <wire x2="1056" y1="592" y2="592" x1="1040" />
        </branch>
        <iomarker fontsize="28" x="1056" y="592" name="IN_LOG(8:0)" orien="R0" />
        <iomarker fontsize="28" x="992" y="288" name="DEMUX_LOG(2:0)" orien="R90" />
        <branch name="DEMUX_VAL(2:0)">
            <wire x2="1280" y1="1712" y2="1712" x1="1216" />
            <wire x2="1296" y1="1712" y2="1712" x1="1280" />
            <wire x2="1216" y1="1712" y2="1728" x1="1216" />
        </branch>
        <iomarker fontsize="28" x="1216" y="1728" name="DEMUX_VAL(2:0)" orien="R90" />
        <branch name="IN_VALUE(8:0)">
            <wire x2="1296" y1="1904" y2="1904" x1="1280" />
            <wire x2="1280" y1="1904" y2="1984" x1="1280" />
            <wire x2="1360" y1="1984" y2="1984" x1="1280" />
        </branch>
        <iomarker fontsize="28" x="1360" y="1984" name="IN_VALUE(8:0)" orien="R0" />
    </sheet>
</drawing>