<?xml version="1.0" encoding="UTF-8"?>
<symbol version="7" name="EC_DOUBLE_Control_Unit">
    <symboltype>BLOCK</symboltype>
    <timestamp>2014-12-15T6:49:27</timestamp>
    <pin polarity="Input" x="0" y="-608" name="CLK" />
    <pin polarity="Input" x="0" y="96" name="GO" />
    <pin polarity="Input" x="0" y="160" name="VALID(1:0)" />
    <pin polarity="Output" x="464" y="288" name="LOAD_REGT" />
    <pin polarity="Output" x="464" y="352" name="LOAD_REGX" />
    <pin polarity="Output" x="464" y="416" name="LOAD_REGY" />
    <pin polarity="Output" x="464" y="-416" name="FINISHED" />
    <pin polarity="Output" x="464" y="480" name="MUX_LOG(2:0)" />
    <pin polarity="Output" x="464" y="544" name="DEMUX_LOG(2:0)" />
    <pin polarity="Output" x="464" y="608" name="MUX_VAL(2:0)" />
    <pin polarity="Output" x="464" y="672" name="DEMUX_VAL(2:0)" />
    <pin polarity="Output" x="464" y="736" name="MUX_REGT(1:0)" />
    <pin polarity="Output" x="464" y="800" name="MUX_REGX(1:0)" />
    <pin polarity="Output" x="464" y="864" name="MUX_REGY(1:0)" />
    <graph>
        <attrtext style="alignment:BCENTER;fontsize:56;fontname:Arial" attrname="SymbolName" x="232" y="-648" type="symbol" />
        <attrtext style="fontsize:24;fontname:Arial" attrname="PinName" x="72" y="-608" type="pin CLK" />
        <attrtext style="fontsize:24;fontname:Arial" attrname="PinName" x="72" y="96" type="pin GO" />
        <attrtext style="fontsize:24;fontname:Arial" attrname="PinName" x="72" y="160" type="pin VALID(1:0)" />
        <attrtext style="alignment:RIGHT;fontsize:24;fontname:Arial" attrname="PinName" x="392" y="288" type="pin LOAD_REGT" />
        <attrtext style="alignment:RIGHT;fontsize:24;fontname:Arial" attrname="PinName" x="392" y="352" type="pin LOAD_REGX" />
        <attrtext style="alignment:RIGHT;fontsize:24;fontname:Arial" attrname="PinName" x="392" y="416" type="pin LOAD_REGY" />
        <attrtext style="alignment:RIGHT;fontsize:24;fontname:Arial" attrname="PinName" x="392" y="-416" type="pin FINISHED" />
        <attrtext style="alignment:RIGHT;fontsize:24;fontname:Arial" attrname="PinName" x="392" y="480" type="pin MUX_LOG(2:0)" />
        <attrtext style="alignment:RIGHT;fontsize:24;fontname:Arial" attrname="PinName" x="392" y="544" type="pin DEMUX_LOG(2:0)" />
        <attrtext style="alignment:RIGHT;fontsize:24;fontname:Arial" attrname="PinName" x="392" y="608" type="pin MUX_VAL(2:0)" />
        <attrtext style="alignment:RIGHT;fontsize:24;fontname:Arial" attrname="PinName" x="392" y="672" type="pin DEMUX_VAL(2:0)" />
        <attrtext style="alignment:RIGHT;fontsize:24;fontname:Arial" attrname="PinName" x="392" y="736" type="pin MUX_REGT(1:0)" />
        <attrtext style="alignment:RIGHT;fontsize:24;fontname:Arial" attrname="PinName" x="392" y="800" type="pin MUX_REGX(1:0)" />
        <attrtext style="alignment:RIGHT;fontsize:24;fontname:Arial" attrname="PinName" x="392" y="864" type="pin MUX_REGY(1:0)" />
        <line x2="464" y1="288" y2="288" x1="400" />
        <line x2="464" y1="352" y2="352" x1="400" />
        <line x2="464" y1="416" y2="416" x1="400" />
        <rect width="64" x="400" y="468" height="24" />
        <line x2="464" y1="480" y2="480" x1="400" />
        <rect width="64" x="400" y="532" height="24" />
        <line x2="464" y1="544" y2="544" x1="400" />
        <rect width="64" x="400" y="596" height="24" />
        <line x2="464" y1="608" y2="608" x1="400" />
        <rect width="64" x="400" y="660" height="24" />
        <line x2="464" y1="672" y2="672" x1="400" />
        <rect width="64" x="400" y="724" height="24" />
        <line x2="464" y1="736" y2="736" x1="400" />
        <rect width="64" x="400" y="788" height="24" />
        <line x2="464" y1="800" y2="800" x1="400" />
        <rect width="64" x="400" y="852" height="24" />
        <line x2="464" y1="864" y2="864" x1="400" />
        <line x2="0" y1="96" y2="96" x1="64" />
        <rect width="64" x="0" y="148" height="24" />
        <line x2="0" y1="160" y2="160" x1="64" />
        <line x2="0" y1="-608" y2="-608" x1="64" />
        <line x2="464" y1="-416" y2="-416" x1="400" />
        <rect width="336" x="64" y="-640" height="1536" />
    </graph>
</symbol>
