<?xml version="1.0" encoding="UTF-8"?>
<symbol version="7" name="ECDSA">
    <symboltype>BLOCK</symboltype>
    <timestamp>2014-12-15T8:32:19</timestamp>
    <pin polarity="Input" x="0" y="-608" name="k(8:0)" />
    <pin polarity="Input" x="0" y="-544" name="GO" />
    <pin polarity="Input" x="0" y="-480" name="CLK" />
    <pin polarity="Input" x="0" y="-416" name="dA(8:0)" />
    <pin polarity="Input" x="0" y="-352" name="e(8:0)" />
    <pin polarity="Input" x="0" y="-288" name="A(8:0)" />
    <pin polarity="Input" x="0" y="-224" name="G_Y(8:0)" />
    <pin polarity="Input" x="0" y="-160" name="G_X(8:0)" />
    <pin polarity="Input" x="0" y="-96" name="B(8:0)" />
    <pin polarity="Input" x="0" y="-32" name="n(8:0)" />
    <pin polarity="Output" x="464" y="-608" name="r(8:0)" />
    <pin polarity="Output" x="464" y="-512" name="EC_ADD_ZERO_DIV" />
    <pin polarity="Output" x="464" y="-416" name="EC_MUL_ZERO_DIV" />
    <pin polarity="Output" x="464" y="-320" name="SIG_WRONG_INPUT" />
    <pin polarity="Output" x="464" y="-224" name="s(8:0)" />
    <pin polarity="Output" x="464" y="-128" name="FINISHED" />
    <pin polarity="Output" x="464" y="-32" name="INVERTER_ERROR" />
    <graph>
        <rect width="336" x="64" y="-640" height="640" />
        <attrtext style="alignment:BCENTER;fontsize:56;fontname:Arial" attrname="SymbolName" x="232" y="-648" type="symbol" />
        <attrtext style="fontsize:24;fontname:Arial" attrname="PinName" x="72" y="-608" type="pin k(8:0)" />
        <rect width="64" x="0" y="-620" height="24" />
        <line x2="0" y1="-608" y2="-608" x1="64" />
        <attrtext style="fontsize:24;fontname:Arial" attrname="PinName" x="72" y="-544" type="pin GO" />
        <line x2="0" y1="-544" y2="-544" x1="64" />
        <attrtext style="fontsize:24;fontname:Arial" attrname="PinName" x="72" y="-480" type="pin CLK" />
        <line x2="0" y1="-480" y2="-480" x1="64" />
        <attrtext style="fontsize:24;fontname:Arial" attrname="PinName" x="72" y="-416" type="pin dA(8:0)" />
        <rect width="64" x="0" y="-428" height="24" />
        <line x2="0" y1="-416" y2="-416" x1="64" />
        <attrtext style="fontsize:24;fontname:Arial" attrname="PinName" x="72" y="-352" type="pin e(8:0)" />
        <rect width="64" x="0" y="-364" height="24" />
        <line x2="0" y1="-352" y2="-352" x1="64" />
        <attrtext style="fontsize:24;fontname:Arial" attrname="PinName" x="72" y="-288" type="pin A(8:0)" />
        <rect width="64" x="0" y="-300" height="24" />
        <line x2="0" y1="-288" y2="-288" x1="64" />
        <attrtext style="fontsize:24;fontname:Arial" attrname="PinName" x="72" y="-224" type="pin G_Y(8:0)" />
        <rect width="64" x="0" y="-236" height="24" />
        <line x2="0" y1="-224" y2="-224" x1="64" />
        <attrtext style="fontsize:24;fontname:Arial" attrname="PinName" x="72" y="-160" type="pin G_X(8:0)" />
        <rect width="64" x="0" y="-172" height="24" />
        <line x2="0" y1="-160" y2="-160" x1="64" />
        <attrtext style="fontsize:24;fontname:Arial" attrname="PinName" x="72" y="-96" type="pin B(8:0)" />
        <rect width="64" x="0" y="-108" height="24" />
        <line x2="0" y1="-96" y2="-96" x1="64" />
        <attrtext style="fontsize:24;fontname:Arial" attrname="PinName" x="72" y="-32" type="pin n(8:0)" />
        <rect width="64" x="0" y="-44" height="24" />
        <line x2="0" y1="-32" y2="-32" x1="64" />
        <attrtext style="alignment:RIGHT;fontsize:24;fontname:Arial" attrname="PinName" x="392" y="-608" type="pin r(8:0)" />
        <rect width="64" x="400" y="-620" height="24" />
        <line x2="464" y1="-608" y2="-608" x1="400" />
        <attrtext style="alignment:RIGHT;fontsize:24;fontname:Arial" attrname="PinName" x="392" y="-512" type="pin EC_ADD_ZERO_DIV" />
        <line x2="464" y1="-512" y2="-512" x1="400" />
        <attrtext style="alignment:RIGHT;fontsize:24;fontname:Arial" attrname="PinName" x="392" y="-416" type="pin EC_MUL_ZERO_DIV" />
        <line x2="464" y1="-416" y2="-416" x1="400" />
        <attrtext style="alignment:RIGHT;fontsize:24;fontname:Arial" attrname="PinName" x="392" y="-320" type="pin SIG_WRONG_INPUT" />
        <line x2="464" y1="-320" y2="-320" x1="400" />
        <attrtext style="alignment:RIGHT;fontsize:24;fontname:Arial" attrname="PinName" x="392" y="-224" type="pin s(8:0)" />
        <rect width="64" x="400" y="-236" height="24" />
        <line x2="464" y1="-224" y2="-224" x1="400" />
        <attrtext style="alignment:RIGHT;fontsize:24;fontname:Arial" attrname="PinName" x="392" y="-128" type="pin FINISHED" />
        <line x2="464" y1="-128" y2="-128" x1="400" />
        <attrtext style="alignment:RIGHT;fontsize:24;fontname:Arial" attrname="PinName" x="392" y="-32" type="pin INVERTER_ERROR" />
        <line x2="464" y1="-32" y2="-32" x1="400" />
    </graph>
</symbol>
