<?xml version="1.0" encoding="UTF-8"?>
<symbol version="7" name="Inverter_Mod_N_Datapath">
    <symboltype>BLOCK</symboltype>
    <timestamp>2014-11-30T15:25:52</timestamp>
    <pin polarity="Input" x="0" y="-544" name="ONE(8:0)" />
    <pin polarity="Input" x="0" y="-480" name="Y_1(8:0)" />
    <pin polarity="Input" x="0" y="-416" name="ZERO(8:0)" />
    <pin polarity="Input" x="0" y="-352" name="Y_2(8:0)" />
    <pin polarity="Input" x="0" y="-288" name="LOAD_REG_Y" />
    <pin polarity="Input" x="0" y="-224" name="LOAD_VEC_1" />
    <pin polarity="Input" x="0" y="-160" name="LOAD_VEC_2" />
    <pin polarity="Input" x="0" y="-96" name="MUX_SET_1(1:0)" />
    <pin polarity="Input" x="0" y="-32" name="CLK" />
    <pin polarity="Output" x="448" y="-544" name="Y_GT_0" />
    <pin polarity="Output" x="448" y="-384" name="Y_EQ_0" />
    <pin polarity="Output" x="448" y="-224" name="Y1_GT_Y2" />
    <pin polarity="Output" x="448" y="-64" name="Y(8:0)" />
    <graph>
        <attrtext style="alignment:BCENTER;fontsize:56;fontname:Arial" attrname="SymbolName" x="224" y="-584" type="symbol" />
        <attrtext style="fontsize:24;fontname:Arial" attrname="PinName" x="72" y="-544" type="pin ONE(8:0)" />
        <attrtext style="fontsize:24;fontname:Arial" attrname="PinName" x="72" y="-480" type="pin Y_1(8:0)" />
        <attrtext style="fontsize:24;fontname:Arial" attrname="PinName" x="72" y="-416" type="pin ZERO(8:0)" />
        <attrtext style="fontsize:24;fontname:Arial" attrname="PinName" x="72" y="-352" type="pin Y_2(8:0)" />
        <attrtext style="fontsize:24;fontname:Arial" attrname="PinName" x="72" y="-288" type="pin LOAD_REG_Y" />
        <attrtext style="fontsize:24;fontname:Arial" attrname="PinName" x="72" y="-224" type="pin LOAD_VEC_1" />
        <attrtext style="fontsize:24;fontname:Arial" attrname="PinName" x="72" y="-160" type="pin LOAD_VEC_2" />
        <attrtext style="fontsize:24;fontname:Arial" attrname="PinName" x="72" y="-96" type="pin MUX_SET_1(1:0)" />
        <attrtext style="fontsize:24;fontname:Arial" attrname="PinName" x="72" y="-32" type="pin CLK" />
        <attrtext style="alignment:RIGHT;fontsize:24;fontname:Arial" attrname="PinName" x="376" y="-544" type="pin Y_GT_0" />
        <attrtext style="alignment:RIGHT;fontsize:24;fontname:Arial" attrname="PinName" x="376" y="-384" type="pin Y_EQ_0" />
        <attrtext style="alignment:RIGHT;fontsize:24;fontname:Arial" attrname="PinName" x="376" y="-224" type="pin Y1_GT_Y2" />
        <attrtext style="alignment:RIGHT;fontsize:24;fontname:Arial" attrname="PinName" x="376" y="-64" type="pin Y(8:0)" />
        <rect width="64" x="0" y="-556" height="24" />
        <line x2="0" y1="-544" y2="-544" x1="64" />
        <rect width="64" x="0" y="-492" height="24" />
        <line x2="0" y1="-480" y2="-480" x1="64" />
        <rect width="64" x="0" y="-428" height="24" />
        <line x2="0" y1="-416" y2="-416" x1="64" />
        <rect width="64" x="0" y="-364" height="24" />
        <line x2="0" y1="-352" y2="-352" x1="64" />
        <line x2="0" y1="-288" y2="-288" x1="64" />
        <line x2="0" y1="-224" y2="-224" x1="64" />
        <line x2="0" y1="-160" y2="-160" x1="64" />
        <rect width="64" x="0" y="-108" height="24" />
        <line x2="0" y1="-96" y2="-96" x1="64" />
        <line x2="0" y1="-32" y2="-32" x1="64" />
        <line x2="448" y1="-544" y2="-544" x1="384" />
        <line x2="448" y1="-384" y2="-384" x1="384" />
        <line x2="448" y1="-224" y2="-224" x1="384" />
        <rect width="64" x="384" y="-76" height="24" />
        <line x2="448" y1="-64" y2="-64" x1="384" />
        <rect width="320" x="64" y="-576" height="640" />
    </graph>
</symbol>
