<?xml version="1.0" encoding="UTF-8"?>
<symbol version="7" name="TEST_EC_POINT_DOUBLE">
    <symboltype>BLOCK</symboltype>
    <timestamp>2014-11-29T2:33:6</timestamp>
    <pin polarity="Input" x="0" y="-224" name="CLK" />
    <pin polarity="Input" x="0" y="-160" name="P_X(8:0)" />
    <pin polarity="Input" x="0" y="-96" name="P_Y(8:0)" />
    <pin polarity="Input" x="0" y="-32" name="A(8:0)" />
    <pin polarity="Output" x="384" y="-224" name="R_X(8:0)" />
    <pin polarity="Output" x="384" y="-160" name="R_Y(8:0)" />
    <pin polarity="Output" x="384" y="-96" name="FINISHED" />
    <pin polarity="Input" x="0" y="32" name="GO" />
    <graph>
        <attrtext style="alignment:BCENTER;fontsize:56;fontname:Arial" attrname="SymbolName" x="192" y="-264" type="symbol" />
        <attrtext style="fontsize:24;fontname:Arial" attrname="PinName" x="72" y="-224" type="pin CLK" />
        <attrtext style="fontsize:24;fontname:Arial" attrname="PinName" x="72" y="-160" type="pin P_X(8:0)" />
        <attrtext style="fontsize:24;fontname:Arial" attrname="PinName" x="72" y="-96" type="pin P_Y(8:0)" />
        <attrtext style="fontsize:24;fontname:Arial" attrname="PinName" x="72" y="-32" type="pin A(8:0)" />
        <attrtext style="alignment:RIGHT;fontsize:24;fontname:Arial" attrname="PinName" x="312" y="-224" type="pin R_X(8:0)" />
        <attrtext style="alignment:RIGHT;fontsize:24;fontname:Arial" attrname="PinName" x="312" y="-160" type="pin R_Y(8:0)" />
        <attrtext style="alignment:RIGHT;fontsize:24;fontname:Arial" attrname="PinName" x="312" y="-96" type="pin FINISHED" />
        <attrtext style="fontsize:24;fontname:Arial" attrname="PinName" x="72" y="32" type="pin GO" />
        <line x2="0" y1="32" y2="32" x1="64" />
        <line x2="0" y1="-224" y2="-224" x1="64" />
        <rect width="64" x="0" y="-172" height="24" />
        <line x2="0" y1="-160" y2="-160" x1="64" />
        <rect width="64" x="0" y="-108" height="24" />
        <line x2="0" y1="-96" y2="-96" x1="64" />
        <rect width="64" x="0" y="-44" height="24" />
        <line x2="0" y1="-32" y2="-32" x1="64" />
        <rect width="64" x="320" y="-236" height="24" />
        <line x2="384" y1="-224" y2="-224" x1="320" />
        <rect width="64" x="320" y="-172" height="24" />
        <line x2="384" y1="-160" y2="-160" x1="320" />
        <line x2="384" y1="-96" y2="-96" x1="320" />
        <rect width="256" x="64" y="-256" height="320" />
    </graph>
</symbol>
